San Fransisco Bay Catch Dynamics – Peter Vitale
…
Code

# The species key has some very difficult first columns so we need to restrict it down to just species code and name
species_key_clean <- species_key[c(4,5),3:125] %>% 
  row_to_names(row_number = 1) %>% 
  clean_names() %>% 
  remove_empty(which = "rows") %>% 
  pivot_longer(cols = everything(),names_to = 'species_code', values_to = 'species_name')%>% 
  mutate(species_code = str_to_upper(species_code),
                                     species_name = str_to_title(str_to_lower(species_name)))

species_key_clean

# A tibble: 123 × 2
   species_code species_name          
   <chr>        <chr>                 
 1 AG           Arrow Goby            
 2 AS           American Shad         
 3 BBC          Brown Bullhead Catfish
 4 BG           Bay Goby              
 5 BHS          Bonyhead Sculpin      
 6 BOC          Bocaccio Rockfish     
 7 BP           Black Perch           
 8 BPF          Bay Pipefish          
 9 BR           Bat Ray               
10 BRF          Bolinas Rockfish      
# ℹ 113 more rows
…
Number of Fisher Scoring iterations: 1

              Theta:  0.7277 
          Std. Err.:  0.0237 

 2 x log-likelihood:  -11004.1330 

Presence Prediction

Code

speckled$stage1_pred 

# A tibble: 58 × 7
   in_region northern_anchovy_z fit_link     se pred_tbs   lower upper
   <lgl>                  <dbl>    <dbl>  <dbl>    <dbl>   <dbl> <dbl>
 1 TRUE                  -0.273   -0.367 0.0830   0.409  0.371   0.449
 2 TRUE                   0.727   -0.737 0.134    0.324  0.269   0.384
 3 TRUE                   1.73    -1.11  0.271    0.248  0.163   0.360
 4 TRUE                   2.73    -1.48  0.417    0.186  0.0917  0.341
 5 TRUE                   3.73    -1.85  0.564    0.136  0.0496  0.323
 6 TRUE                   4.73    -2.22  0.712    0.0982 0.0263  0.305
 7 TRUE                   5.73    -2.59  0.860    0.0700 0.0137  0.289
 8 TRUE                   6.73    -2.96  1.01     0.0494 0.00714 0.273
 9 TRUE                   7.73    -3.33  1.16     0.0346 0.00370 0.257
10 TRUE                   8.73    -3.70  1.31     0.0242 0.00191 0.243
# ℹ 48 more rows

Abundance Prediction

Code

speckled$stage2_pred

# A tibble: 58 × 7
   in_region northern_anchovy_z fit_link     se pred_tbs  lower upper
   <lgl>                  <dbl>    <dbl>  <dbl>    <dbl>  <dbl> <dbl>
 1 TRUE                  -0.273     2.82 0.0756    16.9  14.5    19.5
 2 TRUE                   0.727     2.67 0.126     14.4  11.2    18.4
 3 TRUE                   1.73      2.51 0.250     12.3   7.51   20.0
 4 TRUE                   2.73      2.35 0.382     10.5   4.95   22.1
 5 TRUE                   3.73      2.19 0.515      8.93  3.25   24.5
 6 TRUE                   4.73      2.03 0.649      7.62  2.13   27.2
 7 TRUE                   5.73      1.87 0.784      6.50  1.40   30.2
 8 TRUE                   6.73      1.71 0.919      5.55  0.917  33.6
 9 TRUE                   7.73      1.55 1.05       4.73  0.601  37.3
10 TRUE                   8.73      1.40 1.19       4.04  0.394  41.5
# ℹ 48 more rows

Combined Prediction

Code

speckled$combined_pred

# A tibble: 58 × 10
   in_region northern_anchovy_z fit_link     se pred_tbs   lower upper
   <lgl>                  <dbl>    <dbl>  <dbl>    <dbl>   <dbl> <dbl>
 1 TRUE                  -0.273   -0.367 0.0830   0.409  0.371   0.449
 2 TRUE                   0.727   -0.737 0.134    0.324  0.269   0.384
 3 TRUE                   1.73    -1.11  0.271    0.248  0.163   0.360
 4 TRUE                   2.73    -1.48  0.417    0.186  0.0917  0.341
 5 TRUE                   3.73    -1.85  0.564    0.136  0.0496  0.323
 6 TRUE                   4.73    -2.22  0.712    0.0982 0.0263  0.305
 7 TRUE                   5.73    -2.59  0.860    0.0700 0.0137  0.289
 8 TRUE                   6.73    -2.96  1.01     0.0494 0.00714 0.273
 9 TRUE                   7.73    -3.33  1.16     0.0346 0.00370 0.257
10 TRUE                   8.73    -3.70  1.31     0.0242 0.00191 0.243
# ℹ 48 more rows
# ℹ 3 more variables: expected_count <dbl>, lower_expected <dbl>,
#   upper_expected <dbl>
…
